module gitlab.com/hosco/hosco-cli

go 1.19

require (
	github.com/mitchellh/go-homedir v1.1.0
	github.com/pkg/errors v0.9.1
	github.com/sirupsen/logrus v1.2.0
	github.com/skratchdot/open-golang v0.0.0-20200116055534-eef842397966
	github.com/spf13/cobra v1.0.0
	github.com/spf13/viper v1.7.0
	github.com/stretchr/testify v1.8.0
	k8s.io/api v0.26.1
	k8s.io/apimachinery v0.26.1
	k8s.io/client-go v0.26.1
)

require (
	github.com/davecgh/go-spew v1.1.1 // indirect
	github.com/emicklei/go-restful/v3 v3.9.0 // indirect
	github.com/fsnotify/fsnotify v1.4.9 // indirect
	github.com/go-logr/logr v1.2.3 // indirect
	github.com/go-openapi/jsonpointer v0.19.5 // indirect
	github.com/go-openapi/jsonreference v0.20.0 // indirect
	github.com/go-openapi/swag v0.19.14 // indirect
	github.com/gogo/protobuf v1.3.2 // indirect
	github.com/golang/protobuf v1.5.2 // indirect
	github.com/google/gnostic v0.5.7-v3refs // indirect
	github.com/google/go-cmp v0.5.9 // indirect
	github.com/google/gofuzz v1.1.0 // indirect
	github.com/hashicorp/hcl v1.0.0 // indirect
	github.com/imdario/mergo v0.3.6 // indirect
	github.com/inconshreveable/mousetrap v1.0.0 // indirect
	github.com/josharian/intern v1.0.0 // indirect
	github.com/json-iterator/go v1.1.12 // indirect
	github.com/konsorten/go-windows-terminal-sequences v1.0.1 // indirect
	github.com/magiconair/properties v1.8.1 // indirect
	github.com/mailru/easyjson v0.7.6 // indirect
	github.com/mitchellh/mapstructure v1.3.1 // indirect
	github.com/moby/spdystream v0.2.0 // indirect
	github.com/modern-go/concurrent v0.0.0-20180306012644-bacd9c7ef1dd // indirect
	github.com/modern-go/reflect2 v1.0.2 // indirect
	github.com/munnerz/goautoneg v0.0.0-20191010083416-a7dc8b61c822 // indirect
	github.com/pelletier/go-toml v1.8.0 // indirect
	github.com/pmezard/go-difflib v1.0.0 // indirect
	github.com/spf13/afero v1.2.2 // indirect
	github.com/spf13/cast v1.3.1 // indirect
	github.com/spf13/jwalterweatherman v1.1.0 // indirect
	github.com/spf13/pflag v1.0.5 // indirect
	github.com/subosito/gotenv v1.2.0 // indirect
	golang.org/x/crypto v0.0.0-20200622213623-75b288015ac9 // indirect
	golang.org/x/net v0.3.1-0.20221206200815-1e63c2f08a10 // indirect
	golang.org/x/oauth2 v0.0.0-20220223155221-ee480838109b // indirect
	golang.org/x/sys v0.3.0 // indirect
	golang.org/x/term v0.3.0 // indirect
	golang.org/x/text v0.5.0 // indirect
	golang.org/x/time v0.0.0-20220210224613-90d013bbcef8 // indirect
	google.golang.org/appengine v1.6.7 // indirect
	google.golang.org/protobuf v1.28.1 // indirect
	gopkg.in/inf.v0 v0.9.1 // indirect
	gopkg.in/ini.v1 v1.57.0 // indirect
	gopkg.in/yaml.v2 v2.4.0 // indirect
	gopkg.in/yaml.v3 v3.0.1 // indirect
	k8s.io/klog/v2 v2.80.1 // indirect
	k8s.io/kube-openapi v0.0.0-20221012153701-172d655c2280 // indirect
	k8s.io/utils v0.0.0-20221107191617-1a15be271d1d // indirect
	sigs.k8s.io/json v0.0.0-20220713155537-f223a00ba0e2 // indirect
	sigs.k8s.io/structured-merge-diff/v4 v4.2.3 // indirect
	sigs.k8s.io/yaml v1.3.0 // indirect
)
